Retail forecasting project
…
ARIMA_fit_all %>%
  forecast(h = 24, point_forecast = lst(mean, median)) %>%
  hilo(level = 80)

## # A tsibble: 24 x 8 [1M]
## # Key:       State, Industry, .model [1]
##    State           Industry       .model    Month          Turnover  mean median
##    <chr>           <chr>          <chr>     <mth>            <dist> <dbl>  <dbl>
##  1 New South Wales Pharmaceutica~ ARIMA  2019 Jan t(N(7.7, 0.0058))  355.   355.
##  2 New South Wales Pharmaceutica~ ARIMA  2019 Feb t(N(7.6, 0.0089))  344.   343.
##  3 New South Wales Pharmaceutica~ ARIMA  2019 Mar  t(N(7.8, 0.013))  379.   378.
##  4 New South Wales Pharmaceutica~ ARIMA  2019 Apr  t(N(7.8, 0.016))  370.   370.
##  5 New South Wales Pharmaceutica~ ARIMA  2019 May   t(N(7.9, 0.02))  396.   395.
##  6 New South Wales Pharmaceutica~ ARIMA  2019 Jun  t(N(7.8, 0.023))  386.   385.
##  7 New South Wales Pharmaceutica~ ARIMA  2019 Jul  t(N(7.9, 0.027))  401.   399.
##  8 New South Wales Pharmaceutica~ ARIMA  2019 Aug  t(N(7.9, 0.031))  414.   412.
##  9 New South Wales Pharmaceutica~ ARIMA  2019 Sep  t(N(7.9, 0.034))  403.   400.
## 10 New South Wales Pharmaceutica~ ARIMA  2019 Oct  t(N(7.9, 0.038))  409.   407.
## # ... with 14 more rows, and 1 more variable: `80%` <hilo>
…
ETS_fit_all %>%
  forecast(h = 24, point_forecast = lst(mean, median)) %>% 
  hilo(level = 80) 

## # A tsibble: 24 x 8 [1M]
## # Key:       State, Industry, .model [1]
##    State           Industry            .model    Month     Turnover  mean median
##    <chr>           <chr>               <chr>     <mth>       <dist> <dbl>  <dbl>
##  1 New South Wales Pharmaceutical, co~ ETS    2019 Jan  N(357, 294)  357.   357.
##  2 New South Wales Pharmaceutical, co~ ETS    2019 Feb  N(339, 359)  339.   339.
##  3 New South Wales Pharmaceutical, co~ ETS    2019 Mar  N(371, 544)  371.   371.
##  4 New South Wales Pharmaceutical, co~ ETS    2019 Apr  N(366, 650)  366.   366.
##  5 New South Wales Pharmaceutical, co~ ETS    2019 May  N(385, 854)  385.   385.
##  6 New South Wales Pharmaceutical, co~ ETS    2019 Jun  N(376, 950)  376.   376.
##  7 New South Wales Pharmaceutical, co~ ETS    2019 Jul N(390, 1172)  390.   390.
##  8 New South Wales Pharmaceutical, co~ ETS    2019 Aug N(395, 1363)  395.   395.
##  9 New South Wales Pharmaceutical, co~ ETS    2019 Sep N(387, 1470)  387.   387.
## 10 New South Wales Pharmaceutical, co~ ETS    2019 Oct N(395, 1700)  395.   395.
## # ... with 14 more rows, and 1 more variable: `80%` <hilo>
…
